M4_Transaction+ Sequence+Test/fifo_tb.vcd
$date
	Fri Feb 27 14:55:28 2026
$end
$version
	QuestaSim Version 2021.3_1
$end
$timescale
	1ps
$end

$scope module fifo_tb_top $end
$var parameter 32 ! DW $end
$var parameter 32 " DP $end
$var reg 1 # wclk $end
$var reg 1 $ rclk $end

$scope module dut $end
$var parameter 32 % DATA_WIDTH $end
$var parameter 32 & DEPTH $end
$var parameter 32 ' ADDR_WIDTH $end
$var parameter 32 ( PTR_WIDTH $end
$var wire 1 ) wclk $end
$var wire 1 * wrst $end
$var wire 1 + w_valid $end
$var wire 1 , w_data [7] $end
$var wire 1 - w_data [6] $end
$var wire 1 . w_data [5] $end
$var wire 1 / w_data [4] $end
$var wire 1 0 w_data [3] $end
$var wire 1 1 w_data [2] $end
$var wire 1 2 w_data [1] $end
$var wire 1 3 w_data [0] $end
$var reg 1 4 w_ready $end
$var wire 1 5 rclk $end
$var wire 1 6 rrst $end
$var wire 1 7 r_ready $end
$var reg 1 8 r_valid $end
$var reg 8 9 r_data [7:0] $end
$var reg 5 : wptr_bin [4:0] $end
$var reg 5 ; wptr_bin_next [4:0] $end
$var reg 5 < wptr_gray [4:0] $end
$var reg 5 = wptr_gray_next [4:0] $end
$var reg 5 > rptr_bin [4:0] $end
$var reg 5 ? rptr_bin_next [4:0] $end
$var reg 5 @ rptr_gray [4:0] $end
$var reg 5 A rptr_gray_next [4:0] $end
$var reg 5 B rptr_gray_wclk [4:0] $end
$var reg 5 C wptr_gray_rclk [4:0] $end
$var reg 1 D full $end
$var reg 1 E empty $end
$var wire 1 F w_en $end
$var wire 1 G r_en $end
$var wire 1 H empty_next $end
$var wire 1 I rptr_gray_full_cmp [4] $end
$var wire 1 J rptr_gray_full_cmp [3] $end
$var wire 1 K rptr_gray_full_cmp [2] $end
$var wire 1 L rptr_gray_full_cmp [1] $end
$var wire 1 M rptr_gray_full_cmp [0] $end
$var wire 1 N full_next $end

$scope function bin2gray $end
$upscope $end

$scope module u_mem $end
$var parameter 32 O DATA_WIDTH $end
$var parameter 32 P DEPTH $end
$var wire 1 ) w_clk $end
$var wire 1 F w_en $end
$var wire 1 Q w_addr [3] $end
$var wire 1 R w_addr [2] $end
$var wire 1 S w_addr [1] $end
$var wire 1 T w_addr [0] $end
$var wire 1 , w_data [7] $end
$var wire 1 - w_data [6] $end
$var wire 1 . w_data [5] $end
$var wire 1 / w_data [4] $end
$var wire 1 0 w_data [3] $end
$var wire 1 1 w_data [2] $end
$var wire 1 2 w_data [1] $end
$var wire 1 3 w_data [0] $end
$var wire 1 U r_addr [3] $end
$var wire 1 V r_addr [2] $end
$var wire 1 W r_addr [1] $end
$var wire 1 X r_addr [0] $end
$var reg 8 Y r_data [7:0] $end
$upscope $end

$scope module u_sync_rptr $end
$var parameter 32 Z WIDTH $end
$var wire 1 ) clk $end
$var wire 1 * rst $end
$var wire 1 [ d [4] $end
$var wire 1 \ d [3] $end
$var wire 1 ] d [2] $end
$var wire 1 ^ d [1] $end
$var wire 1 _ d [0] $end
$var reg 5 ` q [4:0] $end
$var reg 5 a ff1 [4:0] $end
$var reg 5 b ff2 [4:0] $end
$upscope $end

$scope module u_sync_wptr $end
$var parameter 32 c WIDTH $end
$var wire 1 5 clk $end
$var wire 1 6 rst $end
$var wire 1 d d [4] $end
$var wire 1 e d [3] $end
$var wire 1 f d [2] $end
$var wire 1 g d [1] $end
$var wire 1 h d [0] $end
$var reg 5 i q [4:0] $end
$var reg 5 j ff1 [4:0] $end
$var reg 5 k ff2 [4:0] $end
$upscope $end
$upscope $end
$upscope $end
$enddefinitions $end
#0
$dumpvars
0#
0$
14
08
bx 9
b0 :
b0 ;
b0 <
b0 =
b0 >
b0 ?
b0 @
b0 A
b0 B
b0 C
0D
1E
bx Y
b0 `
b0 a
b0 b
b0 i
b0 j
b0 k
b1000 !
b10000 "
b1000 %
b10000 &
b100 '
b101 (
b1000 O
b10000 P
b101 Z
b101 c
07
16
03
02
01
00
0/
0.
0-
0,
0+
1*
05
0)
0h
0g
0f
0e
0d
0_
0^
0]
0\
0[
0X
0W
0V
0U
0T
0S
0R
0Q
0F
0G
1H
0M
0L
0K
1J
1I
0N
$end
#5000
1#
1)
#6670
1$
15
#10000
0#
0)
#13340
0$
05
#15000
1#
1)
#20000
0#
0)
#20010
1$
15
#25000
1#
1)
#26680
0$
05
#30000
0#
0)
#33350
1$
15
#35000
1#
1)
#40000
0#
0)
#40020
0$
05
#45000
1#
1)
0*
#46000
1+
12
1/
1.
1-
1,
1F
b1 ;
b1 =
#46690
1$
15
#50000
0#
0)
#53360
0$
05
#55000
1#
1)
b1 :
b1 <
1h
1T
b10 ;
b11 =
b11110010 Y
b11110010 9
#56000
13
0-
#60000
0#
0)
#60030
1$
15
#65000
1#
1)
b10 :
b11 <
1g
0T
1S
b11 ;
b10 =
#66000
02
10
0/
1-
0,
#66700
0$
05
#70000
0#
0)
#73370
1$
15
#75000
1#
1)
b11 :
b10 <
0h
1T
b100 ;
b110 =
#76000
03
12
0-
1,
#80000
0#
0)
#80040
0$
05
#85000
1#
1)
b100 :
b110 <
1f
0T
0S
1R
b101 ;
b111 =
#86000
13
00
1/
0.
1-
#86710
1$
15
#90000
0#
0)
#93380
0$
05
#95000
1#
1)
b101 :
b111 <
1h
1T
b110 ;
b101 =
#96000
02
1.
0,
#100000
0#
0)
#100050
1$
15
06
#105000
1#
1)
b110 :
b101 <
0g
0T
1S
b111 ;
b100 =
#106000
03
#106720
0$
05
#110000
0#
0)
#113390
1$
15
b101 j
#115000
1#
1)
b111 :
b100 <
0h
1T
b1000 ;
b1100 =
#120000
0#
0)
#120060
0$
05
#125000
1#
1)
b1000 :
b1100 <
1e
0T
0S
0R
1Q
b1001 ;
b1101 =
#126000
13
12
11
0/
0.
1,
#126730
1$
15
b1100 j
b101 k
b101 i
b101 C
0H
#130000
0#
0)
#133400
0$
05
#135000
1#
1)
b1001 :
b1101 <
1h
1T
b1010 ;
b1111 =
#136000
10
0,
#140000
0#
0)
#140070
1$
15
0E
b1101 j
b1100 k
b1100 i
18
b1100 C
#145000
1#
1)
b1010 :
b1111 <
1g
0T
1S
b1011 ;
b1110 =
#146000
03
02
00
0-
#146740
0$
05
#150000
0#
0)
#153410
1$
15
b1111 j
b1101 k
b1101 i
b1101 C
#154410
17
1G
b1 ?
b1 A
#155000
1#
1)
b1011 :
b1110 <
0h
1T
b1100 ;
b1010 =
#156000
12
10
1/
1.
1,
#160000
0#
0)
#160080
0$
05
#165000
1#
1)
b1100 :
b1010 <
0f
0T
0S
1R
b1101 ;
b1011 =
#166000
13
02
00
#166750
1$
15
b1 >
b1 @
b1010 j
b1111 k
b1111 i
1_
b1111 C
1X
b10110011 Y
b10 ?
b11 A
b10110011 9
#167750
07
0G
b1 ?
b1 A
#170000
0#
0)
#173420
0$
05
#175000
1#
1)
b1 a
b1101 :
b1011 <
1h
1T
b1110 ;
b1001 =
#176000
01
10
0/
#180000
0#
0)
#180090
1$
15
b1011 j
b1010 k
b1010 i
b1010 C
#181090
17
1G
b10 ?
b11 A
#185000
1#
1)
b1110 :
b1001 <
b1 b
b1 `
0g
0T
1S
b1 B
1M
b1111 ;
b1000 =
#186000
03
12
0,
#186760
0$
05
#190000
0#
0)
#193430
1$
15
b10 >
b11 @
b1001 j
b1011 k
b1011 i
1^
b1011 C
0X
1W
b1101001 Y
b11 ?
b10 A
b1101001 9
#194430
07
0G
b10 ?
b11 A
#195000
1#
1)
b11 a
b1111 :
b1000 <
0h
1T
b10000 ;
b11000 =
#196000
13
00
1-
1,
#200000
0#
0)
#200100
0$
05
#205000
1#
1)
b10000 :
b11000 <
b11 b
b11 `
1d
0T
0S
0R
0Q
b11 B
1L
b10001 ;
b11001 =
#206000
03
02
0-
#206770
1$
15
b11000 j
b1001 k
b1001 i
b1001 C
#207770
17
1G
b11 ?
b10 A
#210000
0#
0)
#213440
0$
05
#215000
1#
1)
b10001 :
b11001 <
1h
1T
b10010 ;
b11011 =
1N
#216000
12
11
10
0.
#220000
0#
0)
#220110
1$
15
b11 >
b10 @
b11001 j
b11000 k
b11000 i
0_
b11000 C
1X
b10101010 Y
b100 ?
b110 A
b10101010 9
#221110
07
0G
b11 ?
b10 A
#225000
1#
1)
b10 a
b10010 :
b11011 <
1D
04
1g
0T
1S
0F
#226000
01
1-
0,
#226780
0$
05
#230000
0#
0)
#233450
1$
15
b11011 j
b11001 k
b11001 i
b11001 C
#234450
17
1G
b100 ?
b110 A
#235000
1#
1)
b10 b
b10 `
b10 B
0M
0N
#240000
0#
0)
#240120
0$
05
#245000
1#
1)
0D
14
1F
b10011 ;
b11010 =
1N
#246790
1$
15
b100 >
b110 @
b11011 k
b11011 i
1]
b11011 C
0X
0W
1V
b11010011 Y
b101 ?
b111 A
b11010011 9
#247790
07
0G
b100 ?
b110 A
#250000
0#
0)
#253460
0$
05
#255000
1#
1)
b110 a
b10011 :
b11010 <
1D
04
0h
1T
0F
#256000
02
11
1/
0-
1,
#260000
0#
0)
#260130
1$
15
b11010 j
#261130
17
1G
b101 ?
b111 A
#265000
1#
1)
b110 b
b110 `
b110 B
1K
0N
#266800
0$
05
#270000
0#
0)
#273470
1$
15
b101 >
b111 @
b11010 k
b11010 i
1_
b11010 C
1X
b1110001 Y
b110 ?
b101 A
b1110001 9
#274470
07
0G
b101 ?
b111 A
#275000
1#
1)
0D
b111 a
14
1F
b10100 ;
b11110 =
1N
#280000
0#
0)
#280140
0$
05
#285000
1#
1)
b111 b
b10100 :
b11110 <
1D
04
b111 `
1f
0T
0S
1R
b111 B
1M
0N
0F
#286000
0+
#286810
1$
15
b11110 j
#287810
17
1G
b110 ?
b101 A
#290000
0#
0)
#293480
0$
05
#295000
1#
1)
0D
14
#300000
0#
0)
#300150
1$
15
b110 >
b101 @
b11110 k
b11110 i
0^
b11110 C
0X
1W
b1110000 Y
b111 ?
b100 A
b1110000 9
#301150
07
0G
b110 ?
b101 A
#305000
1#
1)
b101 a
#306820
0$
05
#310000
0#
0)
#313490
1$
15
#314490
17
1G
b111 ?
b100 A
#315000
1#
1)
b101 b
b101 `
b101 B
0L
#320000
0#
0)
#320160
0$
05
#325000
1#
1)
#326830
1$
15
b111 >
b100 @
0_
1X
b1000 ?
b1100 A
#327830
07
0G
b111 ?
b100 A
#330000
0#
0)
#333500
0$
05
#335000
1#
1)
b100 a
#340000
0#
0)
#340170
1$
15
#341170
17
1G
b1000 ?
b1100 A
#345000
1#
1)
b100 b
b100 `
b100 B
0M
#346840
0$
05
#350000
0#
0)
#353510
1$
15
b1000 >
b1100 @
1\
0X
0W
0V
1U
b11000111 Y
b1001 ?
b1101 A
b11000111 9
#354510
07
0G
b1000 ?
b1100 A
#355000
1#
1)
b1100 a
#360000
0#
0)
#360180
0$
05
#365000
1#
1)
b1100 b
b1100 `
b1100 B
0J
#366850
1$
15
#367850
17
1G
b1001 ?
b1101 A
#370000
0#
0)
#373520
0$
05
#375000
1#
1)
#380000
0#
0)
#380190
1$
15
b1001 >
b1101 @
1_
1X
b1001111 Y
b1010 ?
b1111 A
b1001111 9
#381190
07
0G
b1001 ?
b1101 A
#385000
1#
1)
b1101 a
#386860
0$
05
#390000
0#
0)
#393530
1$
15
#394530
17
1G
b1010 ?
b1111 A
#395000
1#
1)
b1101 b
b1101 `
b1101 B
1M
#400000
0#
0)
#400200
0$
05
#405000
1#
1)
#406870
1$
15
b1010 >
b1111 @
1^
0X
1W
b100 Y
b1011 ?
b1110 A
b100 9
#407870
07
0G
b1010 ?
b1111 A
#410000
0#
0)
#413540
0$
05
#415000
1#
1)
b1111 a
#420000
0#
0)
#420210
1$
15
#421210
17
1G
b1011 ?
b1110 A
#425000
1#
1)
b1111 b
b1111 `
b1111 B
1L
#426880
0$
05
#430000
0#
0)
#433550
1$
15
b1011 >
b1110 @
0_
1X
b10111110 Y
b1100 ?
b1010 A
b10111110 9
#434550
07
0G
b1011 ?
b1110 A
#435000
1#
1)
b1110 a
#440000
0#
0)
#440220
0$
05
#445000
1#
1)
b1110 b
b1110 `
b1110 B
0M
#446890
1$
15
#447890
17
1G
b1100 ?
b1010 A
#450000
0#
0)
#453560
0$
05
#455000
1#
1)
#460000
0#
0)
#460230
1$
15
b1100 >
b1010 @
0]
0X
0W
1V
b10110101 Y
b1101 ?
b1011 A
b10110101 9
#461230
07
0G
b1100 ?
b1010 A
#465000
1#
1)
b1010 a
#466900
0$
05
#470000
0#
0)
#473570
1$
15
#474570
17
1G
b1101 ?
b1011 A
#475000
1#
1)
b1010 b
b1010 `
b1010 B
0K
#480000
0#
0)
#480240
0$
05
#485000
1#
1)
#486910
1$
15
b1101 >
b1011 @
1_
1X
b10101001 Y
b1110 ?
b1001 A
b10101001 9
#487910
07
0G
b1101 ?
b1011 A
#490000
0#
0)
#493580
0$
05
#495000
1#
1)
b1011 a
#500000
0#
0)
#500250
1$
15
#501250
17
1G
b1110 ?
b1001 A
#505000
1#
1)
b1011 b
b1011 `
b1011 B
1M
#506920
0$
05
#510000
0#
0)
#513590
1$
15
b1110 >
b1001 @
0^
0X
1W
b101010 Y
b1111 ?
b1000 A
b101010 9
#514590
07
0G
b1110 ?
b1001 A
#515000
1#
1)
b1001 a
#520000
0#
0)
#520260
0$
05
#525000
1#
1)
b1001 b
b1001 `
b1001 B
0L
#526930
1$
15
#527930
17
1G
b1111 ?
b1000 A
#530000
0#
0)
#533600
0$
05
#535000
1#
1)
#540000
0#
0)
#540270
1$
15
b1111 >
b1000 @
0_
1X
b11100011 Y
b10000 ?
b11000 A
b11100011 9
#541270
07
0G
b1111 ?
b1000 A
#545000
1#
1)
b1000 a
#546940
0$
05
#550000
0#
0)
#553610
1$
15
#554610
17
1G
b10000 ?
b11000 A
#555000
1#
1)
b1000 b
b1000 `
b1000 B
0M
#560000
0#
0)
#560280
0$
05
#565000
1#
1)
#566950
1$
15
b10000 >
b11000 @
1[
0X
0W
0V
0U
b10100000 Y
b10001 ?
b11001 A
b10100000 9
#567950
07
0G
b10000 ?
b11000 A
#570000
0#
0)
#573620
0$
05
#575000
1#
1)
b11000 a
#580000
0#
0)
#580290
1$
15
#581290
17
1G
b10001 ?
b11001 A
#585000
1#
1)
b11000 b
b11000 `
b11000 B
0I
#586960
0$
05
#590000
0#
0)
#593630
1$
15
b10001 >
b11001 @
1_
1X
b10001110 Y
b10010 ?
b11011 A
b10001110 9
#594630
07
0G
b10001 ?
b11001 A
#595000
1#
1)
b11001 a
#600000
0#
0)
#600300
0$
05
#605000
1#
1)
b11001 b
b11001 `
b11001 B
1M
#606970
1$
15
#607970
17
1G
b10010 ?
b11011 A
#610000
0#
0)
#613640
0$
05
#615000
1#
1)
#620000
0#
0)
#620310
1$
15
b10010 >
b11011 @
1^
0X
1W
b1001010 Y
b10011 ?
b11010 A
b1001010 9
#621310
07
0G
b10010 ?
b11011 A
#625000
1#
1)
b11011 a
#626980
0$
05
#630000
0#
0)
#633650
1$
15
#634650
17
1G
b10011 ?
b11010 A
#635000
1#
1)
b11011 b
b11011 `
b11011 B
1L
#640000
0#
0)
#640320
0$
05
#645000
1#
1)
#646990
1$
15
b10011 >
b11010 @
0_
1X
b10011100 Y
b10100 ?
b11110 A
b10011100 9
1H
#647990
07
0G
b10011 ?
b11010 A
0H
#650000
0#
0)
#653660
0$
05
#655000
1#
1)
b11010 a
#660000
0#
0)
#660330
1$
15
#661330
17
1G
b10100 ?
b11110 A
1H
#665000
1#
1)
b11010 b
b11010 `
b11010 B
0M
#667000
0$
05
#670000
0#
0)
#673670
1$
15
b10100 >
b11110 @
1E
08
1]
0X
0W
1V
0G
b11010011 Y
b11010011 9
